{
  "defaultSeverity": "error",
  "extends": [
    "tslint:recommended",
    "tslint-clean-code"
  ],
  "jsRules": {},
  "rulesDirectory": [
    "node_modules/tslint/lib/rules",
    "node_modules/tslint-clean-code/dist/src"
  ],
  "rules": {
    "adjacent-overload-signatures": true,
    "align": {
      "options": [
        "arguments",
        "elements",
        "members",
        "parameters",
        "statements"
      ]
    },
    "array-type": [true, "generic"],
    "arrow-parens": false,
    "arrow-return-shorthand": true,
    "callable-types": true,
    "class-name": true,
    "comment-format": [
      true
    ],
    "curly": [false],
    "eofline": true,
    "forin": true,
    "import-blacklist": [
      true,
      "rxjs/Rx"
    ],
    "import-spacing": true,
    "indent": [
      true,
      "spaces"
    ],
    "interface-over-type-literal": true,
    "label-position": true,
    "max-line-length": [
      true,
      120
    ],
    "member-access": true,
    "member-ordering": [
      true,
      {
        "order": [
          "private-instance-field",
          "protected-instance-field",
          "public-instance-field",
          "private-constructor",
          "protected-constructor",
          "public-constructor",
          "private-instance-method",
          "protected-instance-method",
          "public-instance-method",
          "private-static-field",
          "private-static-method",
          "protected-static-field",
          "protected-static-method",
          "public-static-field",
          "public-static-method"
        ]
      }
    ],
    "no-arg": true,
    "no-bitwise": true,
    "no-consecutive-blank-lines": [
      true,
      2
    ],
    "no-console": [
      true,
      "debug",
      "info",
      "time",
      "timeEnd",
      "trace"
    ],
    "no-construct": true,
    "no-debugger": true,
    "no-duplicate-variable": true,
    "no-empty": false,
    "no-empty-interface": true,
    "no-eval": true,
    "no-inferrable-types": [
      true,
      "ignore-params"
    ],
    "no-namespace": false,
    "no-non-null-assertion": false,
    "no-shadowed-variable": true,
    "no-string-literal": false,
    "no-string-throw": true,
    "no-switch-case-fall-through": true,
    "no-trailing-whitespace": true,
    "no-unused-expression": [
      true,
      "allow-fast-null-checks"
    ],
    "no-var-keyword": true,
    "no-var-requires": false,
    "object-literal-sort-keys": false,
    "one-line": [
      true,
      "check-else",
      "check-whitespace"
    ],
    "prefer-conditional-expression": true,
    "prefer-const": true,
    "prefer-for-of": true,
    "prefer-readonly": true,
    "prefer-object-spread": true,
    "prefer-switch": true,
    "prefer-template": true,
    "prefer-while": true,
    "promise-function-async": true,
    "quotemark": [
      true,
      "single"
    ],
    "radix": true,
    "semicolon": true,
    "triple-equals": [
      false,
      "allow-null-check"
    ],
    "typedef-whitespace": [
      true,
      {
        "call-signature": "nospace",
        "index-signature": "nospace",
        "parameter": "nospace",
        "property-declaration": "nospace",
        "variable-declaration": "nospace"
      }
    ],
    "unified-signatures": true,
    "variable-name": false,
    "whitespace": [
      true,
      "check-branch",
      "check-decl",
      "check-operator",
      "check-separator",
      "check-type"
    ],
    // tslint-clean-code
    "min-class-cohesion": true,
    "newspaper-order": true,
    "no-commented-out-code": true,
    "no-flag-args": true,
    "prefer-dry-conditionals": true
  }
}
